{
  "id": "049dda4f-5e1d-4332-9b5b-8fcc99fe0931",
  "name": "response.visualizar.proyectos.paginas.web",
  "auto": true,
  "condition": "",
  "conditionalFollowupEvents": [],
  "conditionalResponses": [],
  "context": [],
  "contexts": [],
  "endInteraction": false,
  "events": [],
  "fallbackIntent": false,
  "liveAgentHandoff": false,
  "parentId": null,
  "followUpIntents": [],
  "priority": 500000,
  "responses": [
    {
      "action": "",
      "affectedContexts": [],
      "parameters": [],
      "defaultResponsePlatforms": {},
      "messages": [
        {
          "type": "message",
          "condition": "",
          "speech": [
            "Las Páginas Web no son el enfoque principal de Andrés , sino las Aplicaciones, Api Rest y Base de Datos, te recomiendo que veas algunas de ellas luego."
          ]
        },
        {
          "type": "custom_payload",
          "condition": "",
          "payload": {
            "richContent": [
              [
                {
                  "type": "description",
                  "title": "📎📎 PÁGINAS WEB "
                },
                {
                  "icon": {
                    "type": "storage",
                    "color": "rgb(63, 79, 218)"
                  },
                  "event": {
                    "name": "",
                    "languageCode": "",
                    "parameters": {}
                  },
                  "type": "button",
                  "text": "Sitio Web acerca de Robótica desarrollado con HTML5, CSS3 y Boostrap V4.6",
                  "link": "https://github.com/andresWeitzel/andresWeitzel.github.io"
                },
                {
                  "type": "button",
                  "event": {
                    "name": "",
                    "languageCode": "",
                    "parameters": {}
                  },
                  "text": "Sitio Web para Tests en el Área IT desarrollado con JS Vanilla, Boostrap v4.6 y Otras Tecnologías",
                  "icon": {
                    "color": "rgb(63, 79, 218)",
                    "type": "storage"
                  },
                  "link": "https://github.com/andresWeitzel/SitioWebTest_IT"
                }
              ]
            ]
          }
        },
        {
          "type": "message",
          "condition": "",
          "speech": [
            "También puedes visualizar los proyectos enumerados en la sección 𝑷𝒓𝒐𝒚𝒆𝒄𝒕𝒐𝒔 𝒚 𝑫𝒆𝒔𝒂𝒓𝒓𝒐𝒍𝒍𝒐𝒔 de su Portafolio!! (Puedes acceder a él desde la barra de navegación en 𝑷𝒓𝒐𝒚𝒆𝒄𝒕𝒐𝒔) . Te gustaría visualizar otros Proyectos??"
          ]
        },
        {
          "type": "custom_payload",
          "condition": "",
          "payload": {
            "richContent": [
              [
                {
                  "type": "chips",
                  "options": [
                    {
                      "text": "Ver Otros Proyectos"
                    },
                    {
                      "text": "No Visualizar Proyectos"
                    }
                  ]
                }
              ]
            ]
          }
        }
      ],
      "resetContexts": false
    }
  ],
  "rootParentId": null,
  "templates": [],
  "userSays": [
    {
      "isTemplate": false,
      "data": [
        {
          "text": "paginas",
          "userDefined": false
        }
      ],
      "count": 0,
      "id": "77fe1273-4925-462c-a403-ceb18dc6de72",
      "updated": null
    },
    {
      "isTemplate": false,
      "data": [
        {
          "text": "Páginas Web",
          "userDefined": false
        }
      ],
      "count": 0,
      "id": "b1d40341-e22e-4bc9-ac78-36e0b373d980",
      "updated": null
    },
    {
      "isTemplate": false,
      "data": [
        {
          "text": "paginas web",
          "userDefined": false
        }
      ],
      "count": 0,
      "id": "bd87ecc4-f883-4505-97b4-630b9fa42d44",
      "updated": null
    }
  ],
  "webhookForSlotFilling": false,
  "webhookUsed": false
}