{
  "id": "39110fa9-0526-4d53-8405-e1cdd95a17b5",
  "name": "response.adios",
  "auto": true,
  "condition": "",
  "conditionalFollowupEvents": [],
  "conditionalResponses": [],
  "context": [],
  "contexts": [],
  "endInteraction": false,
  "events": [],
  "fallbackIntent": false,
  "liveAgentHandoff": false,
  "parentId": null,
  "followUpIntents": [],
  "priority": 500000,
  "responses": [
    {
      "action": "",
      "affectedContexts": [],
      "parameters": [
        {
          "noInputPromptMessages": [],
          "noMatchPromptMessages": [],
          "promptMessages": [],
          "defaultValue": "",
          "name": "last-name",
          "dataType": "@sys.last-name",
          "isList": false,
          "required": false,
          "prompts": [],
          "value": "$last-name",
          "outputDialogContexts": []
        },
        {
          "noInputPromptMessages": [],
          "noMatchPromptMessages": [],
          "promptMessages": [],
          "defaultValue": "",
          "name": "music-artist",
          "dataType": "@sys.music-artist",
          "isList": false,
          "required": false,
          "prompts": [],
          "value": "$music-artist",
          "outputDialogContexts": []
        }
      ],
      "defaultResponsePlatforms": {},
      "messages": [
        {
          "type": "message",
          "condition": "",
          "speech": [
            "Ha sido un placer ayudarte, nos vemos pronto!!👋😀",
            "Encantado de haberte ayudado, hasta luego!! 👋😀"
          ]
        }
      ],
      "resetContexts": false
    }
  ],
  "rootParentId": null,
  "templates": [],
  "userSays": [
    {
      "isTemplate": false,
      "data": [
        {
          "text": "nos vemos",
          "userDefined": false
        }
      ],
      "count": 0,
      "id": "2957e5ed-6897-4dfe-8ce0-2b76206b3ee6",
      "updated": null
    },
    {
      "isTemplate": false,
      "data": [
        {
          "text": "hasta pronto",
          "userDefined": false,
          "alias": "music-artist",
          "meta": "@sys.music-artist"
        }
      ],
      "count": 0,
      "id": "d15e396f-cad0-464c-9974-e213fa41b99d",
      "updated": null
    },
    {
      "isTemplate": false,
      "data": [
        {
          "text": "hasta luego",
          "userDefined": false
        }
      ],
      "count": 0,
      "id": "9ba4f549-ee81-48fe-8d84-f6e5e53d0a6e",
      "updated": null
    },
    {
      "isTemplate": false,
      "data": [
        {
          "text": "chau",
          "userDefined": false,
          "alias": "last-name",
          "meta": "@sys.last-name"
        }
      ],
      "count": 0,
      "id": "c3cc9db3-adad-44c6-8425-a731317f8f50",
      "updated": null
    },
    {
      "isTemplate": false,
      "data": [
        {
          "text": "adiós",
          "userDefined": false
        }
      ],
      "count": 0,
      "id": "50ef41fd-fbc0-4045-a2e0-906a46551a62",
      "updated": null
    },
    {
      "isTemplate": false,
      "data": [
        {
          "text": "adios",
          "userDefined": false
        }
      ],
      "count": 0,
      "id": "11d43d50-f3de-4c33-a0aa-8e1754e672b9",
      "updated": null
    }
  ],
  "webhookForSlotFilling": false,
  "webhookUsed": false
}