{
  "id": "1d0a54c3-a932-4c19-9e0f-79efa4f4b1b0",
  "name": "response.no.visualizar.stack",
  "auto": true,
  "condition": "",
  "conditionalFollowupEvents": [],
  "conditionalResponses": [],
  "context": [],
  "contexts": [],
  "endInteraction": false,
  "events": [],
  "fallbackIntent": false,
  "liveAgentHandoff": false,
  "parentId": null,
  "followUpIntents": [],
  "priority": 500000,
  "responses": [
    {
      "action": "",
      "affectedContexts": [],
      "parameters": [],
      "defaultResponsePlatforms": {},
      "messages": [
        {
          "type": "message",
          "condition": "",
          "speech": [
            "Ok. Quedará para otra ocasión. Podemos pasar a la sección de 𝙋𝙧𝙤𝙮𝙚𝙘𝙩𝙤𝙨 𝙮 𝘿𝙚𝙨𝙖𝙧𝙧𝙤𝙡𝙡𝙤𝙨 para informarte acerca de este tema. Que te parece?"
          ]
        },
        {
          "type": "custom_payload",
          "condition": "",
          "payload": {
            "richContent": [
              [
                {
                  "options": [
                    {
                      "text": "Visualizar Proyectos"
                    },
                    {
                      "text": "No Visualizar Proyectos"
                    }
                  ],
                  "type": "chips"
                }
              ]
            ]
          }
        }
      ],
      "resetContexts": false
    }
  ],
  "rootParentId": null,
  "templates": [],
  "userSays": [
    {
      "isTemplate": false,
      "data": [
        {
          "text": "No Visualizar Stack",
          "userDefined": false
        }
      ],
      "count": 1,
      "id": "444b73af-1adc-44d5-9890-3183f1b8ccdd",
      "updated": null
    }
  ],
  "webhookForSlotFilling": false,
  "webhookUsed": false
}