{
  "id": "45cd0175-92ca-4286-b64b-0efa744a1b6c",
  "name": "response.visualizar.proyectos.aplicaciones.escritorio",
  "auto": true,
  "condition": "",
  "conditionalFollowupEvents": [],
  "conditionalResponses": [],
  "context": [],
  "contexts": [],
  "endInteraction": false,
  "events": [],
  "fallbackIntent": false,
  "liveAgentHandoff": false,
  "parentId": null,
  "followUpIntents": [],
  "priority": 500000,
  "responses": [
    {
      "action": "",
      "affectedContexts": [],
      "parameters": [],
      "defaultResponsePlatforms": {},
      "messages": [
        {
          "type": "message",
          "condition": "",
          "speech": [
            "Las Aplicaciones de Escritorio le dieron impulso a Andrés para entrar al mundo del desarrollo web, ya que no solamente existen más ecosistemas de tecnologías, sino que se tiene un sin fin de posibilidades para especializarse, ej : aplicaciones, páginas, servicios, microservicios, redes,  seguridad, api's, etc."
          ]
        },
        {
          "type": "custom_payload",
          "condition": "",
          "payload": {
            "richContent": [
              [
                {
                  "type": "description",
                  "title": "📎📎 APLICACIONES DE ESCRITORIO "
                },
                {
                  "link": "https://github.com/andresWeitzel/Gestor_de_Empleados",
                  "text": "  Aplicación de Escritorio Java 8 SE para la Gestión de Empleados ",
                  "event": {
                    "name": "",
                    "parameters": {},
                    "languageCode": ""
                  },
                  "type": "button",
                  "icon": {
                    "type": "storage",
                    "color": "rgb(63, 79, 218)"
                  }
                },
                {
                  "event": {
                    "parameters": {},
                    "name": "",
                    "languageCode": ""
                  },
                  "text": "Aplicación de Escritorio Java 8 SE para el Control de Fármacos en Chimpancés",
                  "icon": {
                    "type": "storage",
                    "color": "rgb(63, 79, 218)"
                  },
                  "type": "button",
                  "link": "https://github.com/andresWeitzel/Farmaco_NTZ184"
                },
                {
                  "icon": {
                    "color": "rgb(63, 79, 218)",
                    "type": "storage"
                  },
                  "link": "https://github.com/andresWeitzel/Gestor_Gastos_Personales",
                  "text": "Aplicación de Escritorio Java 8 SE para la Gestión de Gastos Personales",
                  "type": "button",
                  "event": {
                    "parameters": {},
                    "name": "",
                    "languageCode": ""
                  }
                }
              ]
            ]
          }
        },
        {
          "type": "message",
          "condition": "",
          "speech": [
            "También puedes visualizar los proyectos enumerados en la sección 𝑷𝒓𝒐𝒚𝒆𝒄𝒕𝒐𝒔 𝒚 𝑫𝒆𝒔𝒂𝒓𝒓𝒐𝒍𝒍𝒐𝒔 de su Portafolio!! (Puedes acceder a él desde la barra de navegación en 𝑷𝒓𝒐𝒚𝒆𝒄𝒕𝒐𝒔). Te gustaría visualizar otros Proyectos??"
          ]
        },
        {
          "type": "custom_payload",
          "condition": "",
          "payload": {
            "richContent": [
              [
                {
                  "type": "chips",
                  "options": [
                    {
                      "text": "Ver Otros Proyectos"
                    },
                    {
                      "text": "No Visualizar Proyectos"
                    }
                  ]
                }
              ]
            ]
          }
        }
      ],
      "resetContexts": false
    }
  ],
  "rootParentId": null,
  "templates": [],
  "userSays": [
    {
      "isTemplate": false,
      "data": [
        {
          "text": "desktop app",
          "userDefined": false
        }
      ],
      "count": 0,
      "id": "95c7b4aa-2a30-48ce-a0e0-ace60b0be551",
      "updated": null
    },
    {
      "isTemplate": false,
      "data": [
        {
          "text": "aplicaciones  escritorio",
          "userDefined": false
        }
      ],
      "count": 0,
      "id": "ca5dbd80-33fe-48a4-87da-0dcc1fc71d2a",
      "updated": null
    },
    {
      "isTemplate": false,
      "data": [
        {
          "text": "aplicaciones de escritorio",
          "userDefined": false
        }
      ],
      "count": 0,
      "id": "649bfe6e-2a8b-4595-98dc-546b11cf3641",
      "updated": null
    }
  ],
  "webhookForSlotFilling": false,
  "webhookUsed": false
}